{"created_at": "2021-01-12T10:59:34.000Z", "id": "1348947724578791427", "public_metrics": {"retweet_count": 1457, "reply_count": 782, "like_count": 20627, "quote_count": 225}, "text": "@roscosmos \u041e\u043d \u0431\u044b\u043b \u0432\u0435\u043b\u0438\u043a\u043e\u043b\u0435\u043f\u0435\u043d"}
{"created_at": "2021-01-12T02:46:41.000Z", "id": "1348823685445136385", "public_metrics": {"retweet_count": 668, "reply_count": 333, "like_count": 9573, "quote_count": 24}, "text": "@RationalEtienne @TheBabylonBee This is an important distinction"}
{"created_at": "2021-01-11T22:49:05.000Z", "id": "1348763894047625216", "public_metrics": {"retweet_count": 628, "reply_count": 504, "like_count": 13574, "quote_count": 59}, "text": "@ValaAfshar Much more than this &amp; increasing rapidly"}
{"created_at": "2021-01-11T22:35:37.000Z", "id": "1348760502256562176", "public_metrics": {"retweet_count": 65, "reply_count": 144, "like_count": 2239, "quote_count": 7}, "text": "@CodingMark @flcnhvy It is"}
{"created_at": "2021-01-11T19:51:17.000Z", "id": "1348719149686673409", "public_metrics": {"retweet_count": 5764, "reply_count": 1230, "like_count": 51249, "quote_count": 486}, "text": "@archillect Once in a while, something happens that is even better than we imagined"}
{"created_at": "2021-01-11T19:41:29.000Z", "id": "1348716679774265344", "public_metrics": {"retweet_count": 502, "reply_count": 368, "like_count": 6542, "quote_count": 139}, "text": "@skorusARK The factory is the product"}
{"created_at": "2021-01-11T17:54:40.000Z", "id": "1348689798681272325", "public_metrics": {"retweet_count": 412, "reply_count": 289, "like_count": 6435, "quote_count": 49}, "text": "@AustinTeslaClub @TheBabylonBee Probably commenting on @signalapp will do more"}
{"created_at": "2021-01-11T17:53:16.000Z", "id": "1348689448221990917", "public_metrics": {"retweet_count": 3893, "reply_count": 2599, "like_count": 133354, "quote_count": 657}, "text": "@PPathole I bought the replacement glass from a junkyard for $20. They\u2019re great places to get spare parts."}
{"created_at": "2021-01-11T17:50:04.000Z", "id": "1348688644173934593", "public_metrics": {"retweet_count": 22005, "reply_count": 3905, "like_count": 91649, "quote_count": 1993}, "text": "@TheBabylonBee A lot of people are going to be super unhappy with West Coast high tech as the de facto arbiter of free speech"}
{"created_at": "2021-01-11T05:46:40.000Z", "id": "1348506592518438914", "public_metrics": {"retweet_count": 531, "reply_count": 261, "like_count": 6730, "quote_count": 70}, "text": "@alexandersibert @signalapp Already donated to Signal a year ago. Will donate more."}
{"created_at": "2021-01-10T04:41:27.000Z", "id": "1348127793763086337", "public_metrics": {"retweet_count": 1719, "reply_count": 890, "like_count": 15541, "quote_count": 277}, "text": "@benmezrich I am primarily trying to advance two causes: sustainable energy &amp; extending life/consciousness beyond Earth. There is also the existential threat of AI, which we should aspire to mitigate. This doesn\u2019t leave time to write books."}
{"created_at": "2021-01-10T04:25:00.000Z", "id": "1348123652110254080", "public_metrics": {"retweet_count": 50, "reply_count": 82, "like_count": 1837, "quote_count": 7}, "text": "@song_wooseok @GerberKawasaki @benmezrich \ud83e\udd23\ud83e\udd23"}
{"created_at": "2021-01-09T23:07:51.000Z", "id": "1348043839022370817", "public_metrics": {"retweet_count": 407, "reply_count": 274, "like_count": 5192, "quote_count": 123}, "text": "@Ragazaga5 @SpacePadreIsle Maybe a Tesla AI day later this year"}
{"created_at": "2021-01-09T23:05:48.000Z", "id": "1348043324741980160", "public_metrics": {"retweet_count": 152, "reply_count": 504, "like_count": 6717, "quote_count": 22}, "text": "@SpacePadreIsle The Prancing Pony?"}
{"created_at": "2021-01-09T21:21:58.000Z", "id": "1348017194349694978", "public_metrics": {"retweet_count": 147, "reply_count": 211, "like_count": 9138, "quote_count": 13}, "text": "@BoredElonMusk \ud83e\udd23\ud83e\udd23"}
{"created_at": "2021-01-09T20:44:06.000Z", "id": "1348007662491820033", "public_metrics": {"retweet_count": 1434, "reply_count": 2448, "like_count": 38232, "quote_count": 195}, "text": "@erigganewmoney \ud83d\ude22"}
{"created_at": "2021-01-09T19:00:52.000Z", "id": "1347981684021501952", "public_metrics": {"retweet_count": 160, "reply_count": 333, "like_count": 7458, "quote_count": 16}, "text": "@mayemusk It\u2019s true"}
{"created_at": "2021-01-09T18:59:40.000Z", "id": "1347981380710383616", "public_metrics": {"retweet_count": 73, "reply_count": 93, "like_count": 2471, "quote_count": 19}, "text": "@glenn22x @woketopiansa Yes, but not for long"}
{"created_at": "2021-01-09T18:56:53.000Z", "id": "1347980683352838144", "public_metrics": {"retweet_count": 22, "reply_count": 42, "like_count": 876, "quote_count": 6}, "text": "@woketopiansa Yeah, they seemed optimistic too"}
{"created_at": "2021-01-09T18:47:06.000Z", "id": "1347978218494513152", "public_metrics": {"retweet_count": 67748, "reply_count": 30043, "like_count": 940751, "quote_count": 11818}, "text": "My 14-year-old son, Saxon, said he feels like 2021 will be a good year. I agree. Let us all make it so."}
{"created_at": "2021-01-09T18:44:47.000Z", "id": "1347977636555853827", "public_metrics": {"retweet_count": 299, "reply_count": 398, "like_count": 9648, "quote_count": 43}, "text": "@Erdayastronaut @SpaceX Was also thinking that SpaceX Boca should hold fun parties and give tours for the community from time to time"}
{"created_at": "2021-01-09T18:43:32.000Z", "id": "1347977322364694528", "public_metrics": {"retweet_count": 406, "reply_count": 282, "like_count": 9460, "quote_count": 76}, "text": "@Erdayastronaut @SpaceX I super support public spaces around our production &amp; launch sites, wherever it can be done safely and securely. When covid passes, we will open up our restaurant to the public &amp; figure out ways to allow limited access to the High Bar."}
{"created_at": "2021-01-09T18:39:42.000Z", "id": "1347976356135518211", "public_metrics": {"retweet_count": 38, "reply_count": 74, "like_count": 1452, "quote_count": 2}, "text": "@Christo49699922 @sean18743005 @Erdayastronaut @SpaceX That too"}
{"created_at": "2021-01-09T18:37:09.000Z", "id": "1347975717481418752", "public_metrics": {"retweet_count": 865, "reply_count": 2151, "like_count": 19177, "quote_count": 172}, "text": "@sean18743005 @Erdayastronaut @SpaceX Catapult high into the air &amp; land on the roof with a base jumping parachute (the only way to travel)"}
{"created_at": "2021-01-09T18:35:29.000Z", "id": "1347975294729154560", "public_metrics": {"retweet_count": 789, "reply_count": 599, "like_count": 18893, "quote_count": 135}, "text": "@Erdayastronaut @SpaceX That\u2019s actually our restaurant, but SpaceX is building a futuristic bar at the top of the high bay with 360 degree windows &amp; a glass floor looking down on the rocket factory"}
{"created_at": "2021-01-09T18:26:33.000Z", "id": "1347973049958637569", "public_metrics": {"retweet_count": 93, "reply_count": 151, "like_count": 2407, "quote_count": 14}, "text": "@techreview And increase fun! Hopefully."}
{"created_at": "2021-01-09T17:28:51.000Z", "id": "1347958527411724291", "public_metrics": {"retweet_count": 3785, "reply_count": 1911, "like_count": 55072, "quote_count": 839}, "text": "@benmezrich Me neither"}
{"created_at": "2021-01-09T17:10:44.000Z", "id": "1347953968991727617", "public_metrics": {"retweet_count": 104, "reply_count": 125, "like_count": 2788, "quote_count": 10}, "text": "@TonyChoMrMagic @TeslaEnergy One of the best Tesla Solar Roof installations"}
{"created_at": "2021-01-09T12:19:13.000Z", "id": "1347880605489328132", "public_metrics": {"retweet_count": 478, "reply_count": 388, "like_count": 3929, "quote_count": 126}, "text": "@91demigod No, but maybe one day"}
{"created_at": "2021-01-09T10:50:47.000Z", "id": "1347858350717816832", "public_metrics": {"retweet_count": 133, "reply_count": 159, "like_count": 2736, "quote_count": 16}, "text": "@PPathole @engineers_feed Yes, that would be the best way to do it. A large solar field or reactor is needed for power, and then some ice mining droids or long maneuvering drills are needed for the H2O. These are probably the trickier bits."}
{"created_at": "2021-01-09T06:25:30.000Z", "id": "1347791590945771521", "public_metrics": {"retweet_count": 560, "reply_count": 487, "like_count": 21711, "quote_count": 63}, "text": "@engineers_feed His sick beats https://t.co/8PbsgffzRp"}
{"created_at": "2021-01-08T23:37:09.000Z", "id": "1347688827381448704", "public_metrics": {"retweet_count": 4184, "reply_count": 1603, "like_count": 64128, "quote_count": 293}, "text": "@flcnhvy Probably less than a few dozen primary decision-makers. Technically, only three."}
{"created_at": "2021-01-08T15:36:52.000Z", "id": "1347567957493260288", "public_metrics": {"retweet_count": 335, "reply_count": 611, "like_count": 9437, "quote_count": 64}, "text": "@Erdayastronaut @lexfridman Or at least the option for verification, so that the public can ascribe more credibility to verified vs unverified accounts"}
{"created_at": "2021-01-08T02:15:39.000Z", "id": "1347366324826112001", "public_metrics": {"retweet_count": 6025, "reply_count": 3566, "like_count": 92975, "quote_count": 452}, "text": "Launch underway https://t.co/wbk7ZZ0Fqx"}
{"created_at": "2021-01-08T01:35:53.000Z", "id": "1347356316763705344", "public_metrics": {"retweet_count": 11299, "reply_count": 29081, "like_count": 249112, "quote_count": 2700}, "text": "Btw, critical feedback is always super appreciated, as well as ways to donate money that really make a difference (way harder than it seems)"}
{"created_at": "2021-01-07T22:33:14.000Z", "id": "1347310350438260736", "public_metrics": {"retweet_count": 50, "reply_count": 130, "like_count": 2553, "quote_count": 7}, "text": "@eugenelee3 @engineers_feed Yup"}
{"created_at": "2021-01-07T22:30:35.000Z", "id": "1347309686484160516", "public_metrics": {"retweet_count": 723, "reply_count": 337, "like_count": 12723, "quote_count": 59}, "text": "@engineers_feed Indirectly, an electric rocket is possible by using electricity to convert CO2+H2O \u2014&gt; CH4+O2. This will be needed on Mars even for early missions &amp; Earth too over time."}
{"created_at": "2021-01-07T22:27:28.000Z", "id": "1347308902304518145", "public_metrics": {"retweet_count": 458, "reply_count": 268, "like_count": 11156, "quote_count": 40}, "text": "@engineers_feed Not to get to orbit, unfortunately. In space, photon emission powered by matter-antimatter annihilation would rock, but that\u2019s more of a long-term solution."}
{"created_at": "2021-01-07T20:27:22.000Z", "id": "1347278678779072513", "public_metrics": {"retweet_count": 210, "reply_count": 516, "like_count": 6420, "quote_count": 38}, "text": "@Teslarati @ResidentSponge This will be hard to make, as it isn\u2019t like any other vehicle"}
{"created_at": "2021-01-07T20:25:36.000Z", "id": "1347278232077312000", "public_metrics": {"retweet_count": 2320, "reply_count": 792, "like_count": 80055, "quote_count": 163}, "text": "@4thFromOurStar Playing the long game"}
{"created_at": "2021-01-07T19:30:56.000Z", "id": "1347264476106555392", "public_metrics": {"retweet_count": 153, "reply_count": 178, "like_count": 5552, "quote_count": 16}, "text": "@ashleevance True"}
{"created_at": "2021-01-07T19:27:44.000Z", "id": "1347263671450288128", "public_metrics": {"retweet_count": 207, "reply_count": 301, "like_count": 6741, "quote_count": 15}, "text": "@ID_AA_Carmack I hope so. Wings don\u2019t work on the moon at all and def not well on Mars. Also, no runways."}
{"created_at": "2021-01-07T19:16:31.000Z", "id": "1347260847370866689", "public_metrics": {"retweet_count": 176, "reply_count": 150, "like_count": 6089, "quote_count": 24}, "text": "@EricRWeinstein Hamiltonians have +2V the potential of Langrangians and a play!"}
{"created_at": "2021-01-07T18:49:47.000Z", "id": "1347254119237439495", "public_metrics": {"retweet_count": 25217, "reply_count": 7264, "like_count": 321999, "quote_count": 2735}, "text": "https://t.co/2ja38Z8MRE"}
{"created_at": "2021-01-07T15:33:02.000Z", "id": "1347204606414131200", "public_metrics": {"retweet_count": 15888, "reply_count": 2799, "like_count": 126997, "quote_count": 2823}, "text": "@teslaownersSV Well, back to work \u2026"}
{"created_at": "2021-01-07T15:32:27.000Z", "id": "1347204459147902978", "public_metrics": {"retweet_count": 14723, "reply_count": 6844, "like_count": 208306, "quote_count": 2462}, "text": "@teslaownersSV How strange"}
{"created_at": "2021-01-07T12:56:10.000Z", "id": "1347165127036977153", "public_metrics": {"retweet_count": 48261, "reply_count": 16952, "like_count": 371905, "quote_count": 11984}, "text": "Use Signal"}
{"created_at": "2021-01-07T12:49:15.000Z", "id": "1347163389521350658", "public_metrics": {"retweet_count": 2696, "reply_count": 358, "like_count": 19061, "quote_count": 270}, "text": "@TheHackersNews Ya don\u2019t say. Reminds me of this timeless classic \u2026 https://t.co/Gq1wayoTIr"}
{"created_at": "2021-01-07T11:48:06.000Z", "id": "1347147999160397825", "public_metrics": {"retweet_count": 302, "reply_count": 342, "like_count": 16104, "quote_count": 26}, "text": "@UniverCurious Fast water with tiny rocks"}
{"created_at": "2021-01-07T10:30:27.000Z", "id": "1347128458325979136", "public_metrics": {"retweet_count": 149, "reply_count": 164, "like_count": 5228, "quote_count": 16}, "text": "@flcnhvy Yes, and then Occam\u2019s razor is actually third most likely"}
{"created_at": "2021-01-07T10:24:29.000Z", "id": "1347126957331386368", "public_metrics": {"retweet_count": 1980, "reply_count": 1114, "like_count": 66862, "quote_count": 121}, "text": "As seen from an external observer, not the participants"}
{"created_at": "2021-01-07T10:23:50.000Z", "id": "1347126794172948483", "public_metrics": {"retweet_count": 10698, "reply_count": 3430, "like_count": 158228, "quote_count": 1379}, "text": "The most entertaining outcome is the most likely"}
{"created_at": "2021-01-07T05:29:46.000Z", "id": "1347052788333756418", "public_metrics": {"retweet_count": 349, "reply_count": 377, "like_count": 13243, "quote_count": 41}, "text": "@PPathole Dumb and Dumber is a great movie tho"}
{"created_at": "2021-01-07T04:06:23.000Z", "id": "1347031803987599360", "public_metrics": {"retweet_count": 39590, "reply_count": 4691, "like_count": 376014, "quote_count": 3284}, "text": "This is called the domino effect https://t.co/qpbEW54RvM"}
{"created_at": "2021-01-05T03:41:04.000Z", "id": "1346300656110415872", "public_metrics": {"retweet_count": 232, "reply_count": 232, "like_count": 4836, "quote_count": 22}, "text": "@Dtrford @austinbarnard45 @AlexSvanArt @ErcXspace @SpceEnthusiast @SpacexVision @TomDixonDesign @SpaceX @spaceXcentric Doesn\u2019t quite illustrate true size difference. Starship payload volume &amp; mass are &gt;1000% that of Shuttle."}
{"created_at": "2021-01-04T20:57:05.000Z", "id": "1346198993307631617", "public_metrics": {"retweet_count": 1126, "reply_count": 1443, "like_count": 59048, "quote_count": 80}, "text": "Because of the large footprint, it may seem flat, but actually ranges up to 5 stories tall"}
{"created_at": "2021-01-04T20:26:11.000Z", "id": "1346191214769557505", "public_metrics": {"retweet_count": 7201, "reply_count": 3785, "like_count": 151461, "quote_count": 665}, "text": "Snow falling on Giga Berlin https://t.co/eTXMtYp8hG"}
{"created_at": "2021-01-03T00:04:01.000Z", "id": "1345521261246496769", "public_metrics": {"retweet_count": 447, "reply_count": 496, "like_count": 18796, "quote_count": 74}, "text": "@RGVaerialphotos @SpaceX Yes"}
{"created_at": "2021-01-02T15:07:58.000Z", "id": "1345386356504027136", "public_metrics": {"retweet_count": 161, "reply_count": 256, "like_count": 6019, "quote_count": 54}, "text": "@Gfilche \ud83d\ude09"}
{"created_at": "2021-01-02T14:59:09.000Z", "id": "1345384139969552389", "public_metrics": {"retweet_count": 719, "reply_count": 670, "like_count": 13363, "quote_count": 122}, "text": "@flcnhvy Tesla is responsible for 2/3 of all the personal &amp; professional pain in my life combined. But it was worth it."}
{"created_at": "2021-01-02T14:51:49.000Z", "id": "1345382294966571008", "public_metrics": {"retweet_count": 6507, "reply_count": 4302, "like_count": 112118, "quote_count": 660}, "text": "So proud of the Tesla team for achieving this major milestone! At the start of Tesla, I thought we had (optimistically) a 10% chance of surviving at all. https://t.co/xCqTL5TGlE"}
{"created_at": "2021-01-02T14:46:23.000Z", "id": "1345380926046408705", "public_metrics": {"retweet_count": 6401, "reply_count": 0, "like_count": 0, "quote_count": 0}, "text": "RT @Tesla: In 2020, we produced and delivered half a million cars. Huge thanks to all those who made this possible.\nhttps://t.co/q43vz6RMhd"}
{"created_at": "2021-01-02T12:23:28.000Z", "id": "1345344958710992897", "public_metrics": {"retweet_count": 2471, "reply_count": 1998, "like_count": 54075, "quote_count": 347}, "text": "@newscientist Um, we have giant fusion reactor in the sky that works with no maintenance"}
{"created_at": "2021-01-02T03:20:48.000Z", "id": "1345208391958888448", "public_metrics": {"retweet_count": 946, "reply_count": 695, "like_count": 21024, "quote_count": 213}, "text": "@comma_ai Tesla Full Self-Driving will work at a safety level well above that of the average driver this year, of that I am confident. Can\u2019t speak for regulators though."}
{"created_at": "2021-01-01T00:58:30.000Z", "id": "1344810193952014336", "public_metrics": {"retweet_count": 226, "reply_count": 228, "like_count": 3663, "quote_count": 30}, "text": "@PPathole Dojo isn\u2019t needed, but will make self-driving better. It isn\u2019t enough to be safer than human drivers, Autopilot ultimately needs to be more than 10 times safer than human drivers."}
{"created_at": "2020-12-31T05:47:38.000Z", "id": "1344520570235457536", "public_metrics": {"retweet_count": 731, "reply_count": 1162, "like_count": 38115, "quote_count": 64}, "text": "Ignore the heading"}
{"created_at": "2020-12-31T05:40:26.000Z", "id": "1344518758707113986", "public_metrics": {"retweet_count": 3246, "reply_count": 1668, "like_count": 52254, "quote_count": 473}, "text": "Great interview with Mathias D\u00f6pfner\nhttps://t.co/ewnaHc4cH0"}
{"created_at": "2020-12-31T05:19:34.000Z", "id": "1344513508323565569", "public_metrics": {"retweet_count": 392, "reply_count": 405, "like_count": 9314, "quote_count": 71}, "text": "@jack \ud83c\udfa9 The Greatest Gatsby \ud83c\udfa9"}
{"created_at": "2020-12-31T02:25:06.000Z", "id": "1344469598893035521", "public_metrics": {"retweet_count": 148, "reply_count": 212, "like_count": 6372, "quote_count": 13}, "text": "@flcnhvy Inspired by the ballet"}
{"created_at": "2020-12-31T01:55:32.000Z", "id": "1344462159560904706", "public_metrics": {"retweet_count": 113, "reply_count": 226, "like_count": 4356, "quote_count": 15}, "text": "@smvllstvrs @ErcXspace Rocket motion is primarily vertical, so you want the top open"}
{"created_at": "2020-12-31T01:05:35.000Z", "id": "1344449590980874240", "public_metrics": {"retweet_count": 3701, "reply_count": 2292, "like_count": 48561, "quote_count": 566}, "text": "@jack Let\u2019s make the roaring 20\u2019s again!"}
{"created_at": "2020-12-30T19:49:23.000Z", "id": "1344370017295503360", "public_metrics": {"retweet_count": 94, "reply_count": 201, "like_count": 4751, "quote_count": 11}, "text": "@Erdayastronaut Might be a few lumps along the way"}
{"created_at": "2020-12-30T18:31:31.000Z", "id": "1344350420735410177", "public_metrics": {"retweet_count": 634, "reply_count": 316, "like_count": 8018, "quote_count": 103}, "text": "@Erdayastronaut @flcnhvy @ErcXspace Production is hard, prototypes are easy. Building ~1000 Starships to create a self-sustaining city on Mars is our mission."}
{"created_at": "2020-12-30T18:18:12.000Z", "id": "1344347067230027777", "public_metrics": {"retweet_count": 50, "reply_count": 86, "like_count": 1764, "quote_count": 8}, "text": "@ICannot_Enough @AloysiusFekete @RationalEtienne @biogirl09 @ErcXspace Exactly"}
{"created_at": "2020-12-30T18:15:27.000Z", "id": "1344346377715761153", "public_metrics": {"retweet_count": 165, "reply_count": 177, "like_count": 9382, "quote_count": 14}, "text": "@RexChapman Haha"}
{"created_at": "2020-12-30T18:09:24.000Z", "id": "1344344855237992448", "public_metrics": {"retweet_count": 191, "reply_count": 188, "like_count": 4302, "quote_count": 40}, "text": "@Erdayastronaut @flcnhvy @ErcXspace SN9 will press CH4 header tank with helium. Long-term solution is under debate. Not clear what is lightest/simplest."}
{"created_at": "2020-12-30T18:07:40.000Z", "id": "1344344418673852416", "public_metrics": {"retweet_count": 24, "reply_count": 41, "like_count": 1041, "quote_count": 3}, "text": "@flabellina212 @RationalEtienne @biogirl09 @ErcXspace Yes"}
{"created_at": "2020-12-30T18:07:31.000Z", "id": "1344344378974720000", "public_metrics": {"retweet_count": 150, "reply_count": 138, "like_count": 2967, "quote_count": 34}, "text": "@RationalEtienne @biogirl09 @ErcXspace Legs would certainly work, but best part is no part, best step is no step"}
{"created_at": "2020-12-30T18:00:33.000Z", "id": "1344342626539954176", "public_metrics": {"retweet_count": 37, "reply_count": 61, "like_count": 1566, "quote_count": 5}, "text": "@flcnhvy @ErcXspace Yes"}
{"created_at": "2020-12-30T18:00:26.000Z", "id": "1344342598694047744", "public_metrics": {"retweet_count": 221, "reply_count": 183, "like_count": 5002, "quote_count": 63}, "text": "@flcnhvy @ErcXspace Saves mass &amp; cost of legs &amp; enables immediate repositioning of booster on to launch mount \u2014 ready to refly in under an hour"}
{"created_at": "2020-12-30T17:01:28.000Z", "id": "1344327757916868608", "public_metrics": {"retweet_count": 762, "reply_count": 920, "like_count": 9742, "quote_count": 655}, "text": "@ErcXspace We\u2019re going to try to catch the Super Heavy Booster with the launch tower arm, using the grid fins to take the load"}
{"created_at": "2020-12-30T09:51:07.000Z", "id": "1344219458324160512", "public_metrics": {"retweet_count": 4546, "reply_count": 2744, "like_count": 101225, "quote_count": 463}, "text": "Snake-head dog had my undivided attention until winder-head ostrich came gliding through all nonchalant https://t.co/dtPMdM3TQp"}
{"created_at": "2020-12-30T09:31:29.000Z", "id": "1344214516230307841", "public_metrics": {"retweet_count": 318, "reply_count": 288, "like_count": 4602, "quote_count": 56}, "text": "@Tesmanian_com Seems odd that the opposition group is from BMW\u2019s home state of Baveria. That\u2018s very far from Brandenburg, where Tesla is building the Gigafactory. \n\nAnd why would a group that claims to be pro-environment oppose a sustainable energy factory? Aren\u2019t there more important issues?"}
{"created_at": "2020-12-30T09:24:36.000Z", "id": "1344212785228435457", "public_metrics": {"retweet_count": 172, "reply_count": 134, "like_count": 4394, "quote_count": 10}, "text": "@Tesmanian_com This is very sensible. Opposition from anywhere cannot mean no progress everywhere!"}
{"created_at": "2020-12-30T09:16:50.000Z", "id": "1344210828052946944", "public_metrics": {"retweet_count": 56, "reply_count": 64, "like_count": 3085, "quote_count": 4}, "text": "@harsimranbansal Literally"}
{"created_at": "2020-12-30T07:57:09.000Z", "id": "1344190775182016512", "public_metrics": {"retweet_count": 174, "reply_count": 487, "like_count": 5626, "quote_count": 35}, "text": "@tobyliiiiiiiiii Are we sure this is real?"}
{"created_at": "2020-12-30T05:33:19.000Z", "id": "1344154578678214657", "public_metrics": {"retweet_count": 11838, "reply_count": 6240, "like_count": 157463, "quote_count": 1046}, "text": "Destiny, destiny\nNo escaping \nthat for me"}
{"created_at": "2020-12-29T22:16:14.000Z", "id": "1344044584712728581", "public_metrics": {"retweet_count": 3603, "reply_count": 3659, "like_count": 73616, "quote_count": 943}, "text": "All Tesla cars delivered in the final three days of the year will get three months of the Full Self-Driving option for free. Delivery &amp; docs must be fully complete by midnight Dec 31st."}
{"created_at": "2020-12-29T22:00:25.000Z", "id": "1344040601000542208", "public_metrics": {"retweet_count": 80, "reply_count": 85, "like_count": 2173, "quote_count": 7}, "text": "@SpaceNews_Inc And Mark Dankberg. This action is wack, not dank!!"}
{"created_at": "2020-12-29T21:45:08.000Z", "id": "1344036755180314625", "public_metrics": {"retweet_count": 470, "reply_count": 490, "like_count": 11927, "quote_count": 88}, "text": "@Reza_Zadeh Less?"}
{"created_at": "2020-12-29T21:34:43.000Z", "id": "1344034136290447362", "public_metrics": {"retweet_count": 193, "reply_count": 215, "like_count": 7045, "quote_count": 38}, "text": "@ashleevance Westworld"}
{"created_at": "2020-12-29T21:32:09.000Z", "id": "1344033488698290176", "public_metrics": {"retweet_count": 5908, "reply_count": 4951, "like_count": 138858, "quote_count": 1347}, "text": "The Last Kingdom show is great"}
{"created_at": "2020-12-29T20:56:54.000Z", "id": "1344024617212645378", "public_metrics": {"retweet_count": 55, "reply_count": 140, "like_count": 1924, "quote_count": 13}, "text": "@jayson32292601 Absolutely. Will be text &amp; visualization, but could add voice too."}
{"created_at": "2020-12-29T20:52:23.000Z", "id": "1344023481160257538", "public_metrics": {"retweet_count": 66, "reply_count": 113, "like_count": 3307, "quote_count": 7}, "text": "@sfs_central !! Even cheese is made of cake !!"}
{"created_at": "2020-12-29T20:48:22.000Z", "id": "1344022471968698370", "public_metrics": {"retweet_count": 247, "reply_count": 357, "like_count": 5685, "quote_count": 43}, "text": "@karpathy If they don\u2019t love us, we\u2019re in deep trouble!"}
{"created_at": "2020-12-29T20:48:04.000Z", "id": "1344022395280089088", "public_metrics": {"retweet_count": 12518, "reply_count": 2883, "like_count": 185767, "quote_count": 1237}, "text": "Not everything is made of cake https://t.co/oMaCmYQAwx"}
{"created_at": "2020-12-29T20:41:18.000Z", "id": "1344020693990703105", "public_metrics": {"retweet_count": 62, "reply_count": 82, "like_count": 4622, "quote_count": 9}, "text": "@chicago_glenn True haha"}
{"created_at": "2020-12-29T20:40:49.000Z", "id": "1344020569151434752", "public_metrics": {"retweet_count": 33994, "reply_count": 4061, "like_count": 355992, "quote_count": 2485}, "text": "Such a weird game when you think about it https://t.co/5MrvVzmeKG"}
{"created_at": "2020-12-29T20:37:54.000Z", "id": "1344019835341180930", "public_metrics": {"retweet_count": 10781, "reply_count": 4704, "like_count": 64156, "quote_count": 3599}, "text": "This is not CGI https://t.co/VOivE97vPR"}
{"created_at": "2020-12-29T20:12:13.000Z", "id": "1344013374879911939", "public_metrics": {"retweet_count": 169, "reply_count": 516, "like_count": 9025, "quote_count": 53}, "text": "@BenSullins We need a UI overhaul"}
